[gd_scene load_steps=4 format=2]

[ext_resource path="res://UI/Background.gd" type="Script" id=1]
[ext_resource path="res://assets/background/TrippY.png" type="Texture" id=2]
[ext_resource path="res://assets/background/TrippY_parts.png" type="Texture" id=3]

[node name="Background" type="ParallaxBackground"]
offset = Vector2( 540, 460 )
transform = Transform2D( 1, 0, 0, 1, 540, 460 )
script = ExtResource( 1 )

[node name="layer1" type="ParallaxLayer" parent="."]
light_mask = 0
z_index = -5
motion_scale = Vector2( 0.3, 1 )
motion_mirroring = Vector2( 1300, 0 )

[node name="Sprite" type="Sprite" parent="layer1"]
light_mask = 0
z_as_relative = false
texture = ExtResource( 2 )

[node name="layer2" type="ParallaxLayer" parent="."]
z_index = -6
motion_scale = Vector2( 0.5, 1 )
motion_mirroring = Vector2( 1080, 0 )

[node name="Sprite" type="Sprite" parent="layer2"]
z_index = 1
z_as_relative = false
texture = ExtResource( 3 )
